Introduction
…
Now, let us simulate an experiment where we toss a fair die 30 times and each time note the number of eyes thrown.

set.seed(456)
dat <- tibble::tibble(x = sample(x = 1L:6L, size = 30, replace = TRUE))

dat

# A tibble: 30 × 1
       x
   <int>
 1     5
 2     5
 3     3
 4     6
 5     5
 6     4
 7     3
 8     1
 9     6
10     2
# ℹ 20 more rows
…
